<svg version="1.1" xmlns="http://www.w3.org/2000/svg" xmlns:xlink="http://www.w3.org/1999/xlink" x="0px" y="0px" width="50px" height="58px" viewBox="0 0 206.667 243.334" enable-background="new 0 0 206.667 243.334" xml:space="preserve" class=" drawsvg-initialized ">
  <path fill="none" stroke="#ffffff" stroke-width="8" stroke-linecap="round" stroke-miterlimit="10" d="M67.688,48.364 c-1.242-13.335,4.938-26.855,17.092-34.389c17.109-10.604,39.574-5.332,50.179,11.775c3.928,6.337,5.677,13.412,5.454,20.346" style="stroke-dasharray: 119.074, 119.074; stroke-dashoffset: 0;"></path>
  <path fill="none" stroke="#ffffff" stroke-width="8" stroke-linecap="round" stroke-miterlimit="10" d="M200.623,138.222 c0,53.373-43.268,96.638-96.641,96.638c-53.375,0-96.642-43.266-96.642-96.638c0-53.375,43.267-96.643,96.642-96.643 C157.355,41.579,200.623,84.847,200.623,138.222z" style="stroke-dasharray: 607.3, 607.3; stroke-dashoffset: 0;"></path>
  <path fill="none" stroke="#ffffff" stroke-width="8" stroke-linecap="round" stroke-miterlimit="10" d="M163.619,144.161h-59.637 V70.472" style="stroke-dasharray: 133.326, 133.326; stroke-dashoffset: 0;"></path>
  <path fill="none" stroke="#ffffff" stroke-width="8" stroke-linecap="round" stroke-miterlimit="10" d="M43.998,215.118 l-21.771,21.77 M185.737,236.887l-21.771-21.77" style="stroke-dasharray: 61.5763, 61.5763; stroke-dashoffset: 0;"></path>
</svg>
